Load source_to_concept_map table from Usagi mapping Files. — load_source_to_concept_map • amstel
…
#>   * 'AUMC Process' for MAPS_TO mapping
#>   * 'AUMC Anatomic Site' for MAPS_TO_VALUE mapping
#>   * 'AUMC Quantity' for MAPS_TO_NUMBER mapping
#> - providers
#>   * 'AUMC Provider' for MAPS_TO mapping
#> - reason_for_admission
#>   * 'AUMC Diagnosis' for MAPS_TO mapping
#> - specimen_source
#>   * 'AUMC Specimen Source' for MAPS_TO mapping
#> Saving source_to_concept_map.csv in mappings folder...
#> Loading mapping records into table: source_to_concept_map
#> Inserting data took 1.05 secs
#> Success: source_to_concept_map loaded.
stcm
#> # A tibble: 5,058 × 9
#>    source_code     source_concept_id source_vocabulary_id source_code_descript…¹
#>    <chr>                       <dbl> <chr>                <chr>                 
#>  1 Vrouw                           0 AUMC Gender          Vrouw                 
#>  2 Man                             0 AUMC Gender          Man                   
#>  3 Huis                            0 AUMC Origin          Huis                  
#>  4 CCU/IC zelfde …                 0 AUMC Origin          CCU/IC zelfde ziekenh…
#>  5 Eerste Hulp af…                 0 AUMC Origin          Eerste Hulp afdeling …
#>  6 Recovery ander…                 0 AUMC Origin          Recovery ander zieken…
#>  7 Eerste Hulp af…                 0 AUMC Origin          Eerste Hulp afdeling …
#>  8 Operatiekamer …                 0 AUMC Origin          Operatiekamer vanaf v…
#>  9 Special/Medium…                 0 AUMC Origin          Special/Medium care a…
#> 10 Operatiekamer …                 0 AUMC Origin          Operatiekamer vanaf E…
#> # ℹ 5,048 more rows
#> # ℹ abbreviated name: ¹​source_code_description
#> # ℹ 5 more variables: target_concept_id <dbl>, target_vocabulary_id <chr>,
#> #   valid_start_date <date>, valid_end_date <date>, invalid_reason <lgl>
…
